Using the tidyfinance package
…
pak::pak("tidy-finance/r-tidyfinance")

Download data

Let’s start by loading the package

library(tidyfinance)

The main function is
download_data(type, start_date, end_date) with supported
type:

list_supported_types()
#> # A tibble: 317 × 3
#>    type                     dataset_name                   domain     
#>    <chr>                    <chr>                          <chr>      
#>  1 factors_q5_daily         q5_factors_daily_2023.csv      Global Q   
#>  2 factors_q5_weekly        q5_factors_weekly_2023.csv     Global Q   
#>  3 factors_q5_weekly_w2w    q5_factors_weekly_w2w_2023.csv Global Q   
#>  4 factors_q5_monthly       q5_factors_monthly_2023.csv    Global Q   
#>  5 factors_q5_quarterly     q5_factors_quarterly_2023.csv  Global Q   
#>  6 factors_q5_annual        q5_factors_annual_2023.csv     Global Q   
#>  7 factors_ff_3_monthly     Fama/French 3 Factors          Fama-French
#>  8 factors_ff_3_weekly      Fama/French 3 Factors [Weekly] Fama-French
#>  9 factors_ff_3_daily       Fama/French 3 Factors [Daily]  Fama-French
#> 10 factors_ff_5_2x3_monthly Fama/French 5 Factors (2x3)    Fama-French
#> # ℹ 307 more rows
…
Under the hood, the function uses the frenchdata package
(see its documentation here) and
applies some cleaning steps, as in TFWR. If you haven’t installed
frenchdata yet, you’ll get prompted to install it first
before you can download this specific data type.

You can also access q-Factor data in this way, by calling:

download_data("factors_q5_daily", "2020-01-01", "2020-12-31")
#> # A tibble: 253 × 7
#>    date       risk_free mkt_excess       me        ia       roe        eg
#>    <date>         <dbl>      <dbl>    <dbl>     <dbl>     <dbl>     <dbl>
#>  1 2020-01-02  0.000055   0.00863  -0.0112  -0.00170   0.000681  0.00338 
#>  2 2020-01-03  0.000055  -0.00673   0.00234 -0.00192  -0.00156   0.000703
#>  3 2020-01-06  0.000055   0.00360  -0.00359 -0.00408  -0.00479   0.000552
#>  4 2020-01-07  0.000055  -0.00192  -0.00139 -0.00323  -0.00511  -0.00272 
#>  5 2020-01-08  0.000055   0.00467  -0.00107 -0.00120   0.00454   0.00622 
#>  6 2020-01-09  0.000055   0.00649  -0.00684 -0.000647  0.00294   0.00522 
#>  7 2020-01-10  0.000055  -0.00335  -0.00236 -0.00205   0.0004    0.00338 
#>  8 2020-01-13  0.000055   0.00729  -0.00199  0.00210   0.00305   0.000733
#>  9 2020-01-14  0.000055  -0.000559  0.00474 -0.00110  -0.00992  -0.00717 
#> 10 2020-01-15  0.000055   0.00164   0.00305 -0.00265  -0.0011    0.00121 
#> # ℹ 243 more rows
…
Regression helpers

We discuss winsorization in TFWR, so we figured providing this
function could be useful:

library(dplyr)

set.seed(123)
data <- tibble(x = rnorm(100)) |>
  arrange(x)

data |>
  mutate(x_winsorized = winsorize(x, 0.01))
#> # A tibble: 100 × 2
#>        x x_winsorized
#>    <dbl>        <dbl>
#>  1 -2.31        -1.97
#>  2 -1.97        -1.97
#>  3 -1.69        -1.69
#>  4 -1.55        -1.55
#>  5 -1.27        -1.27
#>  6 -1.27        -1.27
#>  7 -1.22        -1.22
#>  8 -1.14        -1.14
#>  9 -1.12        -1.12
#> 10 -1.07        -1.07
#> # ℹ 90 more rows

If you rather want to replace the bottom and top quantiles of your
distribution with missing values, then you can use
trim()

data |>
  mutate(x_trimmed = trim(x, 0.01))
#> # A tibble: 100 × 2
#>        x x_trimmed
#>    <dbl>     <dbl>
#>  1 -2.31     NA   
#>  2 -1.97     -1.97
#>  3 -1.69     -1.69
#>  4 -1.55     -1.55
#>  5 -1.27     -1.27
#>  6 -1.27     -1.27
#>  7 -1.22     -1.22
#>  8 -1.14     -1.14
#>  9 -1.12     -1.12
#> 10 -1.07     -1.07
#> # ℹ 90 more rows
…
data <- tibble(
  id = 1:100,
  exchange = sample(c("NYSE", "NASDAQ"), 100, replace = TRUE),
  market_cap = runif(100, 1e6, 1e9)
)

data |>
  mutate(
    portfolio = assign_portfolio(
      pick(everything()), "market_cap", list(n_portfolios = 5, breakpoint_exchanges = "NYSE"))
  )
#> # A tibble: 100 × 4
#>       id exchange market_cap portfolio
#>    <int> <chr>         <dbl>     <int>
#>  1     1 NASDAQ   784790691.         4
#>  2     2 NASDAQ    10420475.         1
#>  3     3 NASDAQ   779286817.         4
#>  4     4 NYSE     729661261.         4
#>  5     5 NASDAQ   630501721.         3
#>  6     6 NASDAQ   481429919.         3
#>  7     7 NASDAQ   157480215.         1
#>  8     8 NYSE       9207304.         1
#>  9     9 NASDAQ   453005936.         3
#> 10    10 NASDAQ   492801035.         3
#> # ℹ 90 more rows
…
